dplyr包中函数使用 | Xueyd's Blog
…
library(tidyverse)

my_iris <- as_tibble(iris)
my_iris
# A tibble: 150 x 5
   Sepal.Length Sepal.Width Petal.Length Petal.Width Species
          <dbl>       <dbl>        <dbl>       <dbl> <fct>  
 1          5.1         3.5          1.4         0.2 setosa 
 2          4.9         3            1.4         0.2 setosa 
 3          4.7         3.2          1.3         0.2 setosa 
# ... with 147 more rows

选择一列：

1
2
3
4
5
6
7
8

my_iris %>% select(Sepal.Length)
# A tibble: 150 x 1
   Sepal.Length
          <dbl>
 1          5.1
 2          4.9
 3          4.7
# ... with 147 more rows

选择多列：

1
2
3
4
5
6
7
8

my_iris %>% select(Species,Petal.Length)
# A tibble: 150 x 2
   Species Petal.Length
   <fct>          <dbl>
 1 setosa           1.4
 2 setosa           1.4
 3 setosa           1.3
# ... with 147 more rows

选择范围的列:

1
2
3
4
5
6
7
8

my_iris %>% select(Sepal.Length:Petal.Length)
# A tibble: 150 x 3
   Sepal.Length Sepal.Width Petal.Length
          <dbl>       <dbl>        <dbl>
 1          5.1         3.5          1.4
 2          4.9         3            1.4
 3          4.7         3.2          1.3
# ... with 147 more rows

反向选择列：

1
2
3
4
5
6
7
8

my_iris %>% select(!Sepal.Length)
# A tibble: 150 x 4
   Sepal.Width Petal.Length Petal.Width Species
         <dbl>        <dbl>       <dbl> <fct>  
 1         3.5          1.4         0.2 setosa 
 2         3            1.4         0.2 setosa 
 3         3.2          1.3         0.2 setosa 
# ... with 147 more rows

1
2
3
4
5
6
7
8

my_iris %>% select(!(Sepal.Length:Petal.Length))
# A tibble: 150 x 2
   Petal.Width Species
         <dbl> <fct>  
 1         0.2 setosa 
 2         0.2 setosa 
 3         0.2 setosa 
# ... with 147 more rows
…
my_iris %>% select(starts_with("Petal"))
# A tibble: 150 x 2
   Petal.Length Petal.Width
          <dbl>       <dbl>
 1          1.4         0.2
 2          1.4         0.2
 3          1.3         0.2
 # ... with 147 more rows
my_iris %>% select(ends_with("Width"))
# A tibble: 150 x 2
   Sepal.Width Petal.Width
         <dbl>       <dbl>
 1         3.5         0.2
 2         3           0.2
 3         3.2         0.2
 # ... with 147 more rows
my_iris %>% select(contains("Petal"))
# A tibble: 150 x 2
   Petal.Length Petal.Width
          <dbl>       <dbl>
 1          1.4         0.2
 2          1.4         0.2
 3          1.3         0.2
 # ... with 147 more rows
…
1
2
3
4
5
6
7
8
9
10

my_iris %>% 
 select(Species,Petal.Length) %>%
 rename(Spe = Species)
# A tibble: 150 x 2
   Spe    Petal.Length
   <fct>         <dbl>
 1 setosa          1.4
 2 setosa          1.4
 3 setosa          1.3
# ... with 147 more rows
…
%in% 

between() , near()

1
2
3
4
5
6
7
8

my_iris %>% filter(Species=="virginica")
# A tibble: 50 x 5
   Sepal.Length Sepal.Width Petal.Length Petal.Width Species  
          <dbl>       <dbl>        <dbl>       <dbl> <fct>    
 1          6.3         3.3          6           2.5 virginica
 2          5.8         2.7          5.1         1.9 virginica
 3          7.1         3            5.9         2.1 virginica
# ... with 47 more rows

1
2
3
4
5
6
7
8
9

my_iris %>% filter(Species=="virginica",Sepal.Length>5)
my_iris %>% filter(Species=="virginica"&Sepal.Length>5)
# A tibble: 49 x 5
   Sepal.Length Sepal.Width Petal.Length Petal.Width Species  
          <dbl>       <dbl>        <dbl>       <dbl> <fct>    
 1          6.3         3.3          6           2.5 virginica
 2          5.8         2.7          5.1         1.9 virginica
 3          7.1         3            5.9         2.1 virginica
# ... with 46 more rows

1
2
3
4
5
6
7
8

my_iris %>% filter(Species=="virginica"&Sepal.Length>mean(Sepal.Length))
# A tibble: 44 x 5
   Sepal.Length Sepal.Width Petal.Length Petal.Width Species  
          <dbl>       <dbl>        <dbl>       <dbl> <fct>    
 1          6.3         3.3          6           2.5 virginica
 2          7.1         3            5.9         2.1 virginica
 3          6.3         2.9          5.6         1.8 virginica
# ... with 41 more rows
…
```R
my_iris %>% 
	select(Sepal.Length,Petal.Length,Species) %>%
	mutate(Length=Sepal.Length+Petal.Length,
		Length2=Sepal.Length-Petal.Length) %>%
	filter(Species=="virginica")
# A tibble: 50 x 5
   Sepal.Length Petal.Length Species   Length Length2
          <dbl>        <dbl> <fct>      <dbl>   <dbl>
 1          6.3          6   virginica   12.3   0.300
 2          5.8          5.1 virginica   10.9   0.7  
 3          7.1          5.9 virginica   13     1.2  
# ... with 47 more rows
# i Use `print(n = ...)` to see more rows
…
1
2
3
4
5
6
7
8
9
10

my_iris %>% arrange(Petal.Length)
# A tibble: 150 x 5
   Sepal.Length Sepal.Width Petal.Length Petal.Width Species
          <dbl>       <dbl>        <dbl>       <dbl> <fct>  
 1          4.6         3.6          1           0.2 setosa 
 2          4.3         3            1.1         0.1 setosa 
 3          5.8         4            1.2         0.2 setosa 
 4          5           3.2          1.2         0.2 setosa 
 5          4.7         3.2          1.3         0.2 setosa 
# ... with 145 more rows
…
1
2
3
4
5
6
7
8
9
10
11

my_iris %>% arrange(-Petal.Length)
my_iris %>% arrange(desc(Petal.Length))
# A tibble: 150 x 5
   Sepal.Length Sepal.Width Petal.Length Petal.Width Species  
          <dbl>       <dbl>        <dbl>       <dbl> <fct>    
 1          7.7         2.6          6.9         2.3 virginica
 2          7.7         3.8          6.7         2.2 virginica
 3          7.7         2.8          6.7         2   virginica
 4          7.6         3            6.6         2.1 virginica
 5          7.9         3.8          6.4         2   virginica
# ... with 145 more rows
先根据变量1升序排列，再根据变量2升序排列：

1
2
3
4
5
6
7
8
9
10

my_iris %>% arrange(Petal.Length,Petal.Width)
# A tibble: 150 x 5
   Sepal.Length Sepal.Width Petal.Length Petal.Width Species
          <dbl>       <dbl>        <dbl>       <dbl> <fct>  
 1          4.6         3.6          1           0.2 setosa 
 2          4.3         3            1.1         0.1 setosa 
 3          5.8         4            1.2         0.2 setosa 
 4          5           3.2          1.2         0.2 setosa 
 5          4.7         3.2          1.3         0.2 setosa 
# ... with 145 more rows
先根据变量1降序排列，再根据变量2升序排列：

1
2
3
4
5
6
7
8
9
10

my_iris %>% arrange(desc(Petal.Length),Petal.Width)
# A tibble: 150 x 5
   Sepal.Length Sepal.Width Petal.Length Petal.Width Species  
          <dbl>       <dbl>        <dbl>       <dbl> <fct>    
 1          7.7         2.6          6.9         2.3 virginica
 2          7.7         2.8          6.7         2   virginica
 3          7.7         3.8          6.7         2.2 virginica
 4          7.6         3            6.6         2.1 virginica
 5          7.9         3.8          6.4         2   virginica
# ... with 145 more rows
…
