R中数据的tidy规整函数 | Xueyd's Blog
…
df %>% 
  pivot_longer(
    cols = !day,
    names_to = c("species", "parameter"),
    names_pattern = "(.*)_(.*)",
    values_to = "value"
)
# A tibble: 45 x 4
     day species parameter value
   <int> <chr>   <chr>     <dbl>
 1     1 A       para1       1.1
 2     1 A       para2       2.1
 3     1 A       para3       3.1
 4     1 B       para1       4.1
 5     1 B       para2       5.1
 6     1 B       para3       6.1
 7     1 C       para1       7.1
 8     1 C       para2       8.1
 9     1 C       para3       9.1
10     2 A       para1       1.2
# ... with 35 more rows
…
